[gd_scene load_steps=3 format=2]

[ext_resource path="res://font/Montserrat-ExtraBold.ttf" type="DynamicFontData" id=1]

[sub_resource type="DynamicFont" id=1]

size = 48
use_mipmaps = false
use_filter = false
font_data = ExtResource( 1 )
_sections_unfolded = [ "Font", "Settings" ]

[node name="menuButton" type="Button"]

anchor_left = 0.0
anchor_top = 0.0
anchor_right = 0.0
anchor_bottom = 0.0
margin_right = 1040.0
margin_bottom = 20.0
rect_min_size = Vector2( 600, 60 )
rect_pivot_offset = Vector2( 0, 0 )
rect_clip_content = false
focus_mode = 2
mouse_filter = 0
mouse_default_cursor_shape = 0
size_flags_horizontal = 1
size_flags_vertical = 1
toggle_mode = false
enabled_focus_mode = 2
shortcut = null
group = null
flat = true
align = 1
_sections_unfolded = [ "Anchor", "Margin", "Rect", "custom_fonts" ]

[node name="Label" type="Label" parent="." index="0"]

anchor_left = 0.0
anchor_top = 0.0
anchor_right = 0.0
anchor_bottom = 0.0
margin_right = 40.0
margin_bottom = 14.0
rect_pivot_offset = Vector2( 0, 0 )
rect_clip_content = false
mouse_filter = 2
mouse_default_cursor_shape = 0
size_flags_horizontal = 1
size_flags_vertical = 4
custom_fonts/font = SubResource( 1 )
text = "Label"
percent_visible = 1.0
lines_skipped = 0
max_lines_visible = -1
_sections_unfolded = [ "custom_fonts", "custom_styles" ]


